<?xml version="1.0" encoding="UTF-8"?>
<svg xmlns="http://www.w3.org/2000/svg" xmlns:xlink="http://www.w3.org/1999/xlink" width="375pt" height="374.999991pt" viewBox="0 0 375 374.999991" version="1.2">
<defs>
<g>
<symbol overflow="visible" id="glyph1-0">
<path style="stroke:none;" d="M 0.546875 0 L 0.546875 -6.296875 L 5.046875 -6.296875 L 5.046875 0 Z M 2.796875 -3.5625 L 4.328125 -5.84375 L 1.265625 -5.84375 Z M 3.0625 -3.15625 L 4.59375 -0.859375 L 4.59375 -5.4375 Z M 1.265625 -0.453125 L 4.328125 -0.453125 L 2.796875 -2.75 Z M 1 -5.4375 L 1 -0.859375 L 2.53125 -3.15625 Z M 1 -5.4375 "/>
</symbol>
<symbol overflow="visible" id="glyph1-1">
<path style="stroke:none;" d="M 2.234375 -5.578125 L 1.84375 -3.421875 L 4.84375 -3.421875 L 4.734375 -2.796875 L 1.734375 -2.796875 L 1.34375 -0.625 L 4.71875 -0.625 L 4.59375 0 L 0.46875 0 L 1.5625 -6.203125 L 5.609375 -6.203125 L 5.484375 -5.578125 Z M 2.234375 -5.578125 "/>
</symbol>
<symbol overflow="visible" id="glyph1-2">
<path style="stroke:none;" d="M 3.234375 -6.34375 C 3.859375 -6.34375 4.328125 -6.171875 4.640625 -5.828125 C 4.960938 -5.484375 5.109375 -5.035156 5.078125 -4.484375 L 4.25 -4.484375 C 4.28125 -4.878906 4.1875 -5.179688 3.96875 -5.390625 C 3.757812 -5.609375 3.457031 -5.71875 3.0625 -5.71875 C 2.6875 -5.71875 2.375 -5.613281 2.125 -5.40625 C 1.882812 -5.207031 1.765625 -4.929688 1.765625 -4.578125 C 1.765625 -4.316406 1.851562 -4.109375 2.03125 -3.953125 C 2.21875 -3.804688 2.515625 -3.6875 2.921875 -3.59375 C 3.515625 -3.445312 3.953125 -3.238281 4.234375 -2.96875 C 4.523438 -2.695312 4.671875 -2.332031 4.671875 -1.875 C 4.671875 -1.269531 4.4375 -0.785156 3.96875 -0.421875 C 3.5 -0.0546875 2.90625 0.125 2.1875 0.125 C 1.539062 0.125 1.03125 -0.0390625 0.65625 -0.375 C 0.28125 -0.707031 0.113281 -1.171875 0.15625 -1.765625 L 0.984375 -1.765625 C 1.003906 -1.359375 1.128906 -1.039062 1.359375 -0.8125 C 1.585938 -0.59375 1.90625 -0.484375 2.3125 -0.484375 C 2.75 -0.484375 3.109375 -0.59375 3.390625 -0.8125 C 3.671875 -1.039062 3.8125 -1.351562 3.8125 -1.75 C 3.8125 -2.039062 3.707031 -2.269531 3.5 -2.4375 C 3.289062 -2.613281 2.957031 -2.757812 2.5 -2.875 C 1.988281 -3 1.59375 -3.175781 1.3125 -3.40625 C 1.039062 -3.632812 0.90625 -3.945312 0.90625 -4.34375 C 0.90625 -4.945312 1.128906 -5.429688 1.578125 -5.796875 C 2.023438 -6.160156 2.578125 -6.34375 3.234375 -6.34375 Z M 3.234375 -6.34375 "/>
</symbol>
<symbol overflow="visible" id="glyph1-3">
<path style="stroke:none;" d="M 6.078125 -5.578125 L 3.875 -5.578125 L 2.875 0 L 2.109375 0 L 3.09375 -5.578125 L 0.875 -5.578125 L 0.984375 -6.203125 L 6.1875 -6.203125 Z M 6.078125 -5.578125 "/>
</symbol>
<symbol overflow="visible" id="glyph1-4">
<path style="stroke:none;" d="M 0.671875 -1.03125 C 0.816406 -1.03125 0.929688 -0.984375 1.015625 -0.890625 C 1.109375 -0.796875 1.15625 -0.679688 1.15625 -0.546875 C 1.15625 -0.359375 1.085938 -0.195312 0.953125 -0.0625 C 0.816406 0.0625 0.660156 0.125 0.484375 0.125 C 0.335938 0.125 0.21875 0.0820312 0.125 0 C 0.0390625 -0.09375 0 -0.207031 0 -0.34375 C 0 -0.539062 0.0625 -0.703125 0.1875 -0.828125 C 0.320312 -0.960938 0.484375 -1.03125 0.671875 -1.03125 Z M 0.671875 -1.03125 "/>
</symbol>
<symbol overflow="visible" id="glyph1-5">
<path style="stroke:none;" d=""/>
</symbol>
<symbol overflow="visible" id="glyph1-6">
<path style="stroke:none;" d="M 1.359375 -0.625 L 4.390625 -0.625 L 4.28125 0 L 0.109375 0 L 0.203125 -0.4375 L 2.859375 -2.734375 C 3.378906 -3.191406 3.742188 -3.566406 3.953125 -3.859375 C 4.171875 -4.148438 4.28125 -4.46875 4.28125 -4.8125 C 4.28125 -5.414062 3.96875 -5.71875 3.34375 -5.71875 C 2.9375 -5.71875 2.609375 -5.609375 2.359375 -5.390625 C 2.109375 -5.171875 1.925781 -4.828125 1.8125 -4.359375 L 1.796875 -4.265625 L 1.03125 -4.265625 L 1.046875 -4.359375 C 1.367188 -5.679688 2.195312 -6.34375 3.53125 -6.34375 C 4.070312 -6.34375 4.476562 -6.207031 4.75 -5.9375 C 5.019531 -5.664062 5.15625 -5.320312 5.15625 -4.90625 C 5.15625 -4.507812 5.007812 -4.109375 4.71875 -3.703125 C 4.425781 -3.296875 3.910156 -2.785156 3.171875 -2.171875 Z M 1.359375 -0.625 "/>
</symbol>
<symbol overflow="visible" id="glyph1-7">
<path style="stroke:none;" d="M 2.9375 -6.34375 C 3.613281 -6.34375 4.117188 -6.125 4.453125 -5.6875 C 4.785156 -5.257812 4.953125 -4.695312 4.953125 -4 C 4.953125 -3.644531 4.925781 -3.289062 4.875 -2.9375 C 4.820312 -2.582031 4.726562 -2.21875 4.59375 -1.84375 C 4.46875 -1.46875 4.304688 -1.132812 4.109375 -0.84375 C 3.910156 -0.5625 3.648438 -0.328125 3.328125 -0.140625 C 3.015625 0.0351562 2.660156 0.125 2.265625 0.125 C 1.585938 0.125 1.082031 -0.0859375 0.75 -0.515625 C 0.414062 -0.953125 0.25 -1.519531 0.25 -2.21875 C 0.25 -2.570312 0.273438 -2.925781 0.328125 -3.28125 C 0.378906 -3.632812 0.46875 -4 0.59375 -4.375 C 0.726562 -4.75 0.894531 -5.078125 1.09375 -5.359375 C 1.289062 -5.640625 1.546875 -5.875 1.859375 -6.0625 C 2.179688 -6.25 2.539062 -6.34375 2.9375 -6.34375 Z M 2.28125 -0.484375 C 2.625 -0.484375 2.921875 -0.613281 3.171875 -0.875 C 3.421875 -1.132812 3.609375 -1.460938 3.734375 -1.859375 C 3.859375 -2.253906 3.945312 -2.628906 4 -2.984375 C 4.0625 -3.347656 4.09375 -3.6875 4.09375 -4 C 4.09375 -4.53125 3.992188 -4.945312 3.796875 -5.25 C 3.609375 -5.5625 3.316406 -5.71875 2.921875 -5.71875 C 2.578125 -5.71875 2.28125 -5.585938 2.03125 -5.328125 C 1.78125 -5.078125 1.59375 -4.753906 1.46875 -4.359375 C 1.34375 -3.960938 1.25 -3.582031 1.1875 -3.21875 C 1.132812 -2.863281 1.109375 -2.53125 1.109375 -2.21875 C 1.109375 -1.6875 1.203125 -1.265625 1.390625 -0.953125 C 1.585938 -0.640625 1.882812 -0.484375 2.28125 -0.484375 Z M 2.28125 -0.484375 "/>
</symbol>
<symbol overflow="visible" id="glyph1-8">
<path style="stroke:none;" d="M 4.171875 -6.203125 L 3.078125 0 L 2.296875 0 L 3.265625 -5.40625 L 1.375 -4.375 L 1.515625 -5.1875 L 2.96875 -6.015625 C 3.207031 -6.140625 3.445312 -6.203125 3.6875 -6.203125 Z M 4.171875 -6.203125 "/>
</symbol>
<symbol overflow="visible" id="glyph0-0">
<path style="stroke:none;" d="M 6.984375 -28.800781 C 3.636719 -28.800781 1.800781 -27 1.800781 -23.617188 L 1.800781 -15.121094 C 1.800781 -14.4375 2.125 -14.003906 2.773438 -13.789062 L 11.304688 -10.980469 L 11.304688 -6.191406 C 11.304688 -5.21875 10.800781 -4.753906 9.863281 -4.753906 L 8.136719 -4.753906 C 7.234375 -4.753906 6.695312 -5.21875 6.695312 -6.191406 L 6.695312 -8.964844 C 6.695312 -9.359375 6.515625 -9.539062 6.121094 -9.539062 L 2.375 -9.539062 C 2.015625 -9.539062 1.800781 -9.359375 1.800781 -8.964844 L 1.800781 -5.183594 C 1.800781 -1.800781 3.636719 0 6.984375 0 L 11.015625 0 C 14.398438 0 16.199219 -1.800781 16.199219 -5.183594 L 16.199219 -13.5 C 16.199219 -14.183594 15.875 -14.578125 15.265625 -14.832031 L 6.695312 -17.640625 L 6.695312 -22.609375 C 6.695312 -23.542969 7.234375 -24.046875 8.136719 -24.046875 L 9.863281 -24.046875 C 10.835938 -24.046875 11.304688 -23.542969 11.304688 -22.609375 L 11.304688 -19.800781 C 11.304688 -19.441406 11.519531 -19.222656 11.878906 -19.222656 L 15.625 -19.222656 C 16.019531 -19.222656 16.199219 -19.441406 16.199219 -19.800781 L 16.199219 -23.617188 C 16.199219 -27 14.398438 -28.800781 11.015625 -28.800781 Z M 6.984375 -28.800781 "/>
</symbol>
<symbol overflow="visible" id="glyph0-1">
<path style="stroke:none;" d="M 1.800781 -0.574219 C 1.800781 -0.214844 2.015625 0 2.375 0 L 6.121094 0 C 6.515625 0 6.695312 -0.214844 6.695312 -0.574219 L 6.695312 -9.648438 L 11.015625 -9.648438 C 14.398438 -9.648438 16.199219 -11.484375 16.199219 -14.832031 L 16.199219 -23.617188 C 16.199219 -27 14.398438 -28.800781 11.015625 -28.800781 L 2.375 -28.800781 C 2.015625 -28.800781 1.800781 -28.585938 1.800781 -28.222656 Z M 6.695312 -14.398438 L 6.695312 -24.046875 L 9.863281 -24.046875 C 10.835938 -24.046875 11.304688 -23.542969 11.304688 -22.609375 L 11.304688 -15.839844 C 11.304688 -14.941406 10.835938 -14.398438 9.863281 -14.398438 Z M 6.695312 -14.398438 "/>
</symbol>
<symbol overflow="visible" id="glyph0-2">
<path style="stroke:none;" d="M 1.800781 -5.183594 C 1.800781 -1.800781 3.601562 0 6.984375 0 L 11.015625 0 C 14.398438 0 16.199219 -1.800781 16.199219 -5.183594 L 16.199219 -23.617188 C 16.199219 -27 14.398438 -28.800781 11.015625 -28.800781 L 6.984375 -28.800781 C 3.601562 -28.800781 1.800781 -27 1.800781 -23.617188 Z M 8.027344 -4.644531 C 7.09375 -4.644531 6.589844 -5.113281 6.589844 -6.085938 L 6.589844 -22.714844 C 6.589844 -23.652344 7.09375 -24.15625 8.027344 -24.15625 L 10.117188 -24.15625 C 11.050781 -24.15625 11.554688 -23.652344 11.554688 -22.714844 L 11.554688 -6.085938 C 11.554688 -5.113281 11.050781 -4.644531 10.117188 -4.644531 Z M 8.027344 -4.644531 "/>
</symbol>
<symbol overflow="visible" id="glyph0-3">
<path style="stroke:none;" d="M 16.597656 -23.617188 C 16.597656 -27 14.796875 -28.800781 11.410156 -28.800781 L 2.375 -28.800781 C 2.015625 -28.800781 1.800781 -28.585938 1.800781 -28.222656 L 1.800781 -0.574219 C 1.800781 -0.214844 2.015625 0 2.375 0 L 6.121094 0 C 6.480469 0 6.695312 -0.214844 6.695312 -0.574219 L 6.695312 -9.648438 L 9.179688 -9.648438 L 11.59375 -0.503906 C 11.664062 -0.179688 11.84375 0 12.203125 0 L 15.949219 0 C 16.34375 0 16.558594 -0.214844 16.453125 -0.648438 L 13.96875 -10.078125 C 15.695312 -10.835938 16.597656 -12.421875 16.597656 -14.832031 Z M 6.695312 -14.398438 L 6.695312 -24.046875 L 10.261719 -24.046875 C 11.195312 -24.046875 11.699219 -23.542969 11.699219 -22.609375 L 11.699219 -15.839844 C 11.699219 -14.902344 11.195312 -14.398438 10.261719 -14.398438 Z M 6.695312 -14.398438 "/>
</symbol>
<symbol overflow="visible" id="glyph0-4">
<path style="stroke:none;" d="M 1.65625 -28.800781 C 1.296875 -28.800781 1.078125 -28.585938 1.078125 -28.222656 L 1.078125 -24.625 C 1.078125 -24.265625 1.296875 -24.046875 1.65625 -24.046875 L 5.832031 -24.046875 L 5.832031 -0.574219 C 5.832031 -0.179688 6.046875 0 6.40625 0 L 10.152344 0 C 10.546875 0 10.726562 -0.179688 10.726562 -0.574219 L 10.726562 -24.046875 L 14.902344 -24.046875 C 15.300781 -24.046875 15.480469 -24.265625 15.480469 -24.625 L 15.480469 -28.222656 C 15.480469 -28.585938 15.300781 -28.800781 14.902344 -28.800781 Z M 1.65625 -28.800781 "/>
</symbol>
<symbol overflow="visible" id="glyph0-5">
<path style="stroke:none;" d="M 12.851562 -28.800781 C 12.457031 -28.800781 12.277344 -28.585938 12.277344 -28.222656 L 12.277344 -13.03125 L 12.058594 -13.03125 L 6.589844 -28.332031 C 6.480469 -28.65625 6.265625 -28.800781 5.941406 -28.800781 L 2.375 -28.800781 C 2.015625 -28.800781 1.800781 -28.585938 1.800781 -28.222656 L 1.800781 -0.574219 C 1.800781 -0.214844 2.015625 0 2.375 0 L 6.121094 0 C 6.515625 0 6.695312 -0.214844 6.695312 -0.574219 L 6.695312 -15.839844 L 6.875 -15.839844 L 12.382812 -0.46875 C 12.492188 -0.144531 12.707031 0 13.03125 0 L 16.597656 0 C 16.957031 0 17.171875 -0.214844 17.171875 -0.574219 L 17.171875 -28.222656 C 17.171875 -28.585938 16.957031 -28.800781 16.597656 -28.800781 Z M 12.851562 -28.800781 "/>
</symbol>
<symbol overflow="visible" id="glyph0-6">
<path style="stroke:none;" d="M 19.152344 0 C 19.585938 0 19.726562 -0.214844 19.65625 -0.613281 L 13.679688 -28.296875 C 13.609375 -28.65625 13.390625 -28.800781 13.066406 -28.800781 L 8.0625 -28.800781 C 7.738281 -28.800781 7.523438 -28.65625 7.453125 -28.296875 L 1.476562 -0.613281 C 1.367188 -0.214844 1.546875 0 1.945312 0 L 5.796875 0 C 6.121094 0 6.300781 -0.179688 6.371094 -0.503906 L 7.34375 -5.761719 L 13.753906 -5.761719 L 14.761719 -0.503906 C 14.832031 -0.179688 15.011719 0 15.335938 0 Z M 12.851562 -9.9375 L 8.242188 -9.9375 L 10.546875 -22.5 Z M 12.851562 -9.9375 "/>
</symbol>
<symbol overflow="visible" id="glyph0-7">
<path style="stroke:none;" d=""/>
</symbol>
<symbol overflow="visible" id="glyph0-8">
<path style="stroke:none;" d="M 16.234375 -23.617188 C 16.234375 -27 14.398438 -28.800781 11.050781 -28.800781 L 7.019531 -28.800781 C 3.636719 -28.800781 1.800781 -27 1.800781 -23.617188 L 1.800781 -5.183594 C 1.800781 -1.800781 3.636719 0 7.019531 0 L 11.050781 0 C 14.398438 0 16.234375 -1.800781 16.234375 -5.183594 L 16.234375 -9.070312 C 16.234375 -9.433594 16.019531 -9.648438 15.660156 -9.648438 L 12.058594 -9.648438 C 11.664062 -9.648438 11.484375 -9.433594 11.484375 -9.070312 L 11.484375 -6.191406 C 11.484375 -5.21875 10.980469 -4.753906 10.042969 -4.753906 L 8.171875 -4.753906 C 7.234375 -4.753906 6.730469 -5.21875 6.730469 -6.191406 L 6.730469 -22.609375 C 6.730469 -23.542969 7.199219 -24.046875 8.171875 -24.046875 L 10.042969 -24.046875 C 10.980469 -24.046875 11.484375 -23.542969 11.484375 -22.609375 L 11.484375 -19.726562 C 11.484375 -19.367188 11.664062 -19.152344 12.058594 -19.152344 L 15.660156 -19.152344 C 16.019531 -19.152344 16.234375 -19.367188 16.234375 -19.726562 Z M 16.234375 -23.617188 "/>
</symbol>
<symbol overflow="visible" id="glyph0-9">
<path style="stroke:none;" d="M 17.207031 0 C 17.785156 0 18 -0.359375 17.746094 -0.828125 L 11.230469 -15.371094 L 17.351562 -27.9375 C 17.605469 -28.441406 17.386719 -28.800781 16.847656 -28.800781 L 13.066406 -28.800781 C 12.671875 -28.800781 12.421875 -28.621094 12.238281 -28.261719 L 6.695312 -16.921875 L 6.695312 -28.078125 C 6.695312 -28.546875 6.445312 -28.800781 5.976562 -28.800781 L 2.519531 -28.800781 C 2.050781 -28.800781 1.800781 -28.546875 1.800781 -28.078125 L 1.800781 -0.71875 C 1.800781 -0.253906 2.050781 0 2.519531 0 L 5.976562 0 C 6.445312 0 6.695312 -0.253906 6.695312 -0.71875 L 6.695312 -8.675781 L 8.027344 -11.230469 L 12.5625 -0.539062 C 12.707031 -0.179688 12.960938 0 13.390625 0 Z M 17.207031 0 "/>
</symbol>
</g>
<clipPath id="clip1">
  <path d="M 56.761719 166.503906 L 100.261719 166.503906 L 100.261719 213.730469 L 56.761719 213.730469 Z M 56.761719 166.503906 "/>
</clipPath>
</defs>
<g id="surface1">
<g style="fill:rgb(100%,100%,100%);fill-opacity:1;">
  <use xlink:href="#glyph0-0" x="109.829976" y="196.274987"/>
</g>
<g style="fill:rgb(100%,100%,100%);fill-opacity:1;">
  <use xlink:href="#glyph0-1" x="127.830009" y="196.274987"/>
</g>
<g style="fill:rgb(100%,100%,100%);fill-opacity:1;">
  <use xlink:href="#glyph0-2" x="145.830042" y="196.274987"/>
</g>
<g style="fill:rgb(100%,100%,100%);fill-opacity:1;">
  <use xlink:href="#glyph0-3" x="163.830076" y="196.274987"/>
</g>
<g style="fill:rgb(100%,74.119568%,29.019165%);fill-opacity:1;">
  <use xlink:href="#glyph0-4" x="182.21669" y="196.274987"/>
</g>
<g style="fill:rgb(100%,100%,100%);fill-opacity:1;">
  <use xlink:href="#glyph0-5" x="198.775282" y="196.274987"/>
</g>
<g style="fill:rgb(100%,100%,100%);fill-opacity:1;">
  <use xlink:href="#glyph0-6" x="217.747319" y="196.274987"/>
</g>
<g style="fill:rgb(100%,100%,100%);fill-opacity:1;">
  <use xlink:href="#glyph0-7" x="238.843357" y="196.274987"/>
</g>
<g style="fill:rgb(100%,100%,100%);fill-opacity:1;">
  <use xlink:href="#glyph0-4" x="247.843379" y="196.274987"/>
</g>
<g style="fill:rgb(100%,100%,100%);fill-opacity:1;">
  <use xlink:href="#glyph0-6" x="264.403414" y="196.274987"/>
</g>
<g style="fill:rgb(100%,100%,100%);fill-opacity:1;">
  <use xlink:href="#glyph0-8" x="285.499452" y="196.274987"/>
</g>
<g style="fill:rgb(100%,100%,100%);fill-opacity:1;">
  <use xlink:href="#glyph0-9" x="303.535488" y="196.274987"/>
</g>
<g style="fill:rgb(100%,100%,100%);fill-opacity:1;">
  <use xlink:href="#glyph0-6" x="322.83153" y="196.274987"/>
</g>
<g style="fill:rgb(100%,74.119568%,29.019165%);fill-opacity:1;">
  <use xlink:href="#glyph1-1" x="109.829976" y="212.084986"/>
</g>
<g style="fill:rgb(100%,74.119568%,29.019165%);fill-opacity:1;">
  <use xlink:href="#glyph1-2" x="115.545008" y="212.084986"/>
</g>
<g style="fill:rgb(100%,74.119568%,29.019165%);fill-opacity:1;">
  <use xlink:href="#glyph1-3" x="121.008041" y="212.084986"/>
</g>
<g style="fill:rgb(100%,74.119568%,29.019165%);fill-opacity:1;">
  <use xlink:href="#glyph1-4" x="126.903077" y="212.084986"/>
</g>
<g style="fill:rgb(100%,74.119568%,29.019165%);fill-opacity:1;">
  <use xlink:href="#glyph1-5" x="129.378092" y="212.084986"/>
</g>
<g style="fill:rgb(100%,74.119568%,29.019165%);fill-opacity:1;">
  <use xlink:href="#glyph1-6" x="131.520107" y="212.084986"/>
</g>
<g style="fill:rgb(100%,74.119568%,29.019165%);fill-opacity:1;">
  <use xlink:href="#glyph1-7" x="137.118148" y="212.084986"/>
</g>
<g style="fill:rgb(100%,74.119568%,29.019165%);fill-opacity:1;">
  <use xlink:href="#glyph1-6" x="142.716188" y="212.084986"/>
</g>
<g style="fill:rgb(100%,74.119568%,29.019165%);fill-opacity:1;">
  <use xlink:href="#glyph1-8" x="148.314228" y="212.084986"/>
</g>
<path style=" stroke:none;fill-rule:nonzero;fill:rgb(100%,74.119568%,29.019165%);fill-opacity:1;" d="M 74.890625 164 C 74.070312 164 73.253906 164.042969 72.433594 164.121094 C 71.617188 164.203125 70.808594 164.324219 70.003906 164.484375 C 69.199219 164.644531 68.402344 164.84375 67.617188 165.082031 C 66.832031 165.320312 66.058594 165.59375 65.300781 165.910156 C 64.542969 166.222656 63.800781 166.574219 63.078125 166.960938 C 62.355469 167.347656 61.652344 167.769531 60.96875 168.226562 C 60.285156 168.679688 59.628906 169.167969 58.992188 169.691406 C 58.359375 170.210938 57.75 170.761719 57.171875 171.34375 C 56.589844 171.921875 56.039062 172.53125 55.519531 173.164062 C 54.996094 173.800781 54.507812 174.457031 54.054688 175.140625 C 53.597656 175.820312 53.175781 176.527344 52.789062 177.25 C 52.402344 177.972656 52.050781 178.714844 51.738281 179.472656 C 51.421875 180.230469 51.148438 181.003906 50.910156 181.789062 C 50.671875 182.574219 50.472656 183.367188 50.3125 184.175781 C 50.152344 184.980469 50.03125 185.789062 49.949219 186.605469 C 49.871094 187.421875 49.828125 188.242188 49.828125 189.0625 C 49.828125 189.882812 49.871094 190.703125 49.949219 191.519531 C 50.03125 192.335938 50.152344 193.148438 50.3125 193.953125 C 50.472656 194.757812 50.671875 195.554688 50.910156 196.339844 C 51.148438 197.125 51.421875 197.894531 51.738281 198.652344 C 52.050781 199.414062 52.402344 200.152344 52.789062 200.878906 C 53.175781 201.601562 53.597656 202.304688 54.054688 202.988281 C 54.507812 203.667969 54.996094 204.328125 55.519531 204.960938 C 56.039062 205.597656 56.589844 206.203125 57.171875 206.785156 C 57.75 207.363281 58.359375 207.914062 58.992188 208.4375 C 59.628906 208.957031 60.285156 209.445312 60.96875 209.902344 C 61.652344 210.355469 62.355469 210.777344 63.078125 211.164062 C 63.800781 211.550781 64.542969 211.902344 65.300781 212.21875 C 66.058594 212.53125 66.832031 212.808594 67.617188 213.046875 C 68.402344 213.285156 69.199219 213.484375 70.003906 213.644531 C 70.808594 213.804688 71.617188 213.925781 72.433594 214.003906 C 73.253906 214.085938 74.070312 214.125 74.890625 214.125 C 75.710938 214.125 76.53125 214.085938 77.347656 214.003906 C 78.164062 213.925781 78.976562 213.804688 79.78125 213.644531 C 80.585938 213.484375 81.382812 213.285156 82.167969 213.046875 C 82.953125 212.808594 83.722656 212.53125 84.480469 212.21875 C 85.242188 211.902344 85.980469 211.550781 86.707031 211.164062 C 87.429688 210.777344 88.132812 210.355469 88.816406 209.902344 C 89.496094 209.445312 90.15625 208.957031 90.789062 208.4375 C 91.425781 207.914062 92.03125 207.363281 92.613281 206.785156 C 93.191406 206.203125 93.742188 205.597656 94.265625 204.960938 C 94.785156 204.328125 95.273438 203.667969 95.730469 202.988281 C 96.1875 202.304688 96.605469 201.601562 96.992188 200.878906 C 97.382812 200.152344 97.730469 199.414062 98.046875 198.652344 C 98.359375 197.894531 98.636719 197.125 98.875 196.339844 C 99.113281 195.554688 99.3125 194.757812 99.472656 193.953125 C 99.632812 193.148438 99.753906 192.335938 99.832031 191.519531 C 99.914062 190.703125 99.953125 189.882812 99.953125 189.0625 C 99.953125 188.242188 99.914062 187.421875 99.832031 186.605469 C 99.753906 185.789062 99.632812 184.980469 99.472656 184.175781 C 99.3125 183.367188 99.113281 182.574219 98.875 181.789062 C 98.636719 181.003906 98.359375 180.230469 98.046875 179.472656 C 97.730469 178.714844 97.382812 177.972656 96.992188 177.25 C 96.605469 176.527344 96.1875 175.820312 95.730469 175.140625 C 95.273438 174.457031 94.785156 173.800781 94.265625 173.164062 C 93.742188 172.53125 93.191406 171.921875 92.613281 171.34375 C 92.03125 170.761719 91.425781 170.210938 90.789062 169.691406 C 90.15625 169.167969 89.496094 168.679688 88.816406 168.226562 C 88.132812 167.769531 87.429688 167.347656 86.707031 166.960938 C 85.980469 166.574219 85.242188 166.222656 84.480469 165.910156 C 83.722656 165.59375 82.953125 165.320312 82.167969 165.082031 C 81.382812 164.84375 80.585938 164.644531 79.78125 164.484375 C 78.976562 164.324219 78.164062 164.203125 77.347656 164.121094 C 76.53125 164.042969 75.710938 164 74.890625 164 Z M 74.890625 164 "/>
<g clip-path="url(#clip1)" clip-rule="nonzero">
<path style=" stroke:none;fill-rule:nonzero;fill:rgb(0%,0%,0%);fill-opacity:1;" d="M 100.105469 182.335938 C 99.71875 181.238281 98.679688 180.289062 97.511719 180.289062 L 86.648438 180.289062 L 95.914062 171.484375 C 96.710938 170.703125 96.960938 169.382812 96.539062 168.347656 C 96.117188 167.316406 95.109375 166.503906 93.992188 166.503906 L 75.207031 166.503906 C 74.347656 166.503906 73.539062 167.144531 73.019531 167.828125 L 57.324219 188.546875 C 56.691406 189.378906 56.585938 190.429688 57.046875 191.363281 C 57.511719 192.300781 58.46875 192.824219 59.511719 192.824219 L 70.113281 192.824219 C 70.148438 192.824219 70.1875 193.074219 70.226562 193.132812 L 60.984375 209.5625 C 60.339844 210.710938 60.597656 212.1875 61.605469 213.039062 C 62.117188 213.472656 62.75 213.707031 63.382812 213.707031 C 63.996094 213.707031 64.605469 213.511719 65.109375 213.105469 L 99.242188 185.492188 C 100.148438 184.757812 100.492188 183.433594 100.105469 182.335938 Z M 100.105469 182.335938 "/>
</g>
</g>
</svg>
